<?xml version="1.0" encoding="UTF-8" standalone="no"?>
<svg
   width="875pt"
   height="875pt"
   viewBox="0 0 875 875"
   version="1.1"
   id="svg27"
   sodipodi:docname="noun-cluster-3885415.svg"
   inkscape:version="1.2.2 (b0a8486541, 2022-12-01)"
   xmlns:inkscape="http://www.inkscape.org/namespaces/inkscape"
   xmlns:sodipodi="http://sodipodi.sourceforge.net/DTD/sodipodi-0.dtd"
   xmlns="http://www.w3.org/2000/svg"
   xmlns:svg="http://www.w3.org/2000/svg">
  <defs
     id="defs31" />
  <sodipodi:namedview
     id="namedview29"
     pagecolor="#ffffff"
     bordercolor="#000000"
     borderopacity="0.25"
     inkscape:showpageshadow="2"
     inkscape:pageopacity="0.0"
     inkscape:pagecheckerboard="0"
     inkscape:deskcolor="#d1d1d1"
     inkscape:document-units="pt"
     showgrid="false"
     inkscape:zoom="0.67028571"
     inkscape:cx="583.33333"
     inkscape:cy="583.33333"
     inkscape:window-width="1920"
     inkscape:window-height="1043"
     inkscape:window-x="0"
     inkscape:window-y="0"
     inkscape:window-maximized="1"
     inkscape:current-layer="svg27" />
  <g
     id="surface558"
     transform="matrix(1.4461062,0,0,1.4461062,-81.272296,43.351245)">
    <path
       style="fill:#000000;fill-opacity:1;fill-rule:nonzero;stroke:none"
       d="M 613.66016,416.96875 H 127.39063 V 118.30859 c 0,-3.08984 -2.50782,-5.60156 -5.60157,-5.60156 -3.08984,0 -5.60156,2.50781 -5.60156,5.60156 V 416.96875 H 86.328125 c -3.089844,0 -5.601563,2.50391 -5.601563,5.60156 0,3.09766 2.507813,5.60156 5.601563,5.60156 h 29.863285 v 27.0586 c 0,3.09765 2.50781,5.60156 5.60156,5.60156 3.08984,0 5.60156,-2.50391 5.60156,-5.60156 v -27.0586 h 486.26953 c 3.09766,0 5.60156,-2.5039 5.60156,-5.60156 -0.004,-3.09765 -2.50781,-5.60156 -5.60546,-5.60156 z m 0,0"
       id="path2" />
    <path
       style="fill:#000000;fill-opacity:1;fill-rule:nonzero;stroke:none"
       d="m 389.08984,316.72266 c 10.8086,0 19.60547,-8.79297 19.60547,-19.60157 0,-10.80859 -8.79687,-19.60156 -19.60547,-19.60156 -10.80859,0 -19.60156,8.79297 -19.60156,19.60156 0,10.8086 8.79297,19.60157 19.60156,19.60157 z m 0,-28 c 4.63282,0 8.39844,3.76953 8.39844,8.39843 0,4.63282 -3.76953,8.39844 -8.39844,8.39844 -4.63281,0 -8.39843,-3.76953 -8.39843,-8.39844 -0.004,-4.63281 3.76562,-8.39843 8.39843,-8.39843 z m 0,0"
       id="path4" />
    <path
       style="fill:#000000;fill-opacity:1;fill-rule:nonzero;stroke:none"
       d="m 199.12109,316.56641 c 18.01563,0 32.66407,-14.64844 32.66407,-32.66407 0,-18.01172 -14.65625,-32.66406 -32.66407,-32.66406 -18.00781,0 -32.66406,14.65234 -32.66406,32.66406 -0.004,18.01563 14.65234,32.66407 32.66406,32.66407 z m 0,-54.13282 c 11.83985,0 21.46485,9.625 21.46485,21.46875 0,11.83203 -9.63282,21.46485 -21.46485,21.46485 -11.83203,0 -21.46484,-9.63282 -21.46484,-21.46485 -0.004,-11.83593 9.62891,-21.46875 21.46484,-21.46875 z m 0,0"
       id="path6" />
    <path
       style="fill:#000000;fill-opacity:1;fill-rule:nonzero;stroke:none"
       d="m 331.24219,371.10937 c 0,11.57422 9.41797,21 21,21 11.58203,0 21,-9.42578 21,-21 0,-11.57421 -9.41797,-21 -21,-21 -11.57813,0 -21,9.42579 -21,21 z m 30.80078,0 c 0,5.40235 -4.39453,9.80079 -9.80078,9.80079 -5.40235,0 -9.80078,-4.39454 -9.80078,-9.80079 0,-5.40234 4.39453,-9.80078 9.80078,-9.80078 5.40625,0.004 9.80078,4.39844 9.80078,9.80078 z m 0,0"
       id="path8" />
    <path
       style="fill:#000000;fill-opacity:1;fill-rule:nonzero;stroke:none"
       d="m 170.0625,219.44531 c 17.24219,0 31.26562,-14.02344 31.26562,-31.26562 0,-17.24219 -14.02734,-31.26563 -31.26562,-31.26563 -17.23828,0 -31.26563,14.02344 -31.26563,31.26563 0,17.24218 14.02344,31.26562 31.26563,31.26562 z m 0,-51.33203 c 11.06641,0 20.06641,9 20.06641,20.06641 0,11.0664 -9,20.0664 -20.06641,20.0664 -11.06641,0 -20.06641,-9 -20.06641,-20.0664 0,-11.06641 9,-20.06641 20.06641,-20.06641 z m 0,0"
       id="path10" />
    <path
       style="fill:#000000;fill-opacity:1;fill-rule:nonzero;stroke:none"
       d="m 251.00391,176.57812 c -18.01563,0 -32.66407,14.65625 -32.66407,32.66407 0,18.01562 14.65625,32.66406 32.66407,32.66406 18.01171,0 32.66406,-14.64844 32.66406,-32.66406 0,-18.00782 -14.64844,-32.66407 -32.66406,-32.66407 z m 0,54.12891 c -11.83985,0 -21.46485,-9.63281 -21.46485,-21.46484 0,-11.83985 9.63281,-21.46485 21.46485,-21.46485 11.83203,0 21.46484,9.62891 21.46484,21.46485 0,11.83203 -9.625,21.46484 -21.46484,21.46484 z m 0,0"
       id="path12" />
    <path
       style="fill:#000000;fill-opacity:1;fill-rule:nonzero;stroke:none"
       d="m 505.63281,197.33984 c 0,15.17969 12.34766,27.53125 27.53125,27.53125 15.17969,0 27.53516,-12.34765 27.53516,-27.53125 0,-15.17968 -12.35547,-27.53515 -27.53516,-27.53515 -15.18359,0 -27.53125,12.35547 -27.53125,27.53515 z m 27.53125,-16.33593 c 9.00391,0 16.33594,7.33203 16.33594,16.33593 0,9.00391 -7.33203,16.32813 -16.33594,16.32813 -9,0 -16.32812,-7.32422 -16.32812,-16.32813 -0.004,-9.0039 7.32812,-16.33593 16.32812,-16.33593 z m 0,0"
       id="path14" />
    <path
       style="fill:#000000;fill-opacity:1;fill-rule:nonzero;stroke:none"
       d="m 256.70703,163.89453 c 16.33594,0 29.62891,-13.29297 29.62891,-29.63672 0,-16.33593 -13.29297,-29.6289 -29.62891,-29.6289 -16.33984,0 -29.63672,13.29297 -29.63672,29.6289 0,16.34375 13.29297,29.63672 29.63672,29.63672 z m 0,-48.05859 c 10.16016,0 18.42969,8.26953 18.42969,18.42968 0,10.16407 -8.26953,18.4336 -18.42969,18.4336 -10.16406,0 -18.43359,-8.26953 -18.43359,-18.4336 -0.004,-10.16015 8.26953,-18.42968 18.43359,-18.42968 z m 0,0"
       id="path16" />
    <path
       style="fill:#000000;fill-opacity:1;fill-rule:nonzero;stroke:none"
       d="m 471.06641,293.83594 c -15.4375,0 -28,12.55859 -28,28 0,15.4375 12.5625,28 28,28 15.4375,0 28,-12.5625 28,-28 0,-15.44141 -12.5586,-28 -28,-28 z m 0,44.80078 c -9.26172,0 -16.80079,-7.53906 -16.80079,-16.80078 0,-9.26172 7.53907,-16.80078 16.80079,-16.80078 9.26171,0 16.80078,7.53906 16.80078,16.80078 0,9.26172 -7.53516,16.80078 -16.80078,16.80078 z m 0,0"
       id="path18" />
    <path
       style="fill:#000000;fill-opacity:1;fill-rule:nonzero;stroke:none"
       d="m 416.03906,345.15625 c -13.05859,0 -23.68359,10.625 -23.68359,23.6875 0,13.05859 10.625,23.68359 23.68359,23.68359 13.0586,0 23.6836,-10.61718 23.6836,-23.68359 -0.004,-13.0625 -10.625,-23.6875 -23.6836,-23.6875 z m 0,36.17187 c -6.88281,0 -12.48047,-5.60156 -12.48047,-12.48046 0,-6.88282 5.60157,-12.48829 12.48047,-12.48829 6.88281,0 12.48047,5.60547 12.48047,12.48829 0,6.8789 -5.60156,12.48046 -12.48047,12.48046 z m 0,0"
       id="path20" />
    <path
       style="fill:#000000;fill-opacity:1;fill-rule:nonzero;stroke:none"
       d="m 444.90234,125.05469 c 0,19.8125 16.1211,35.92968 35.9336,35.92968 19.8125,0 35.93359,-16.11718 35.93359,-35.92968 0,-19.82031 -16.12109,-35.933596 -35.93359,-35.933596 -19.8086,-0.0039 -35.9336,16.109376 -35.9336,35.933596 z m 35.9375,-24.73828 c 13.64063,0 24.73438,11.09375 24.73438,24.73437 0,13.63672 -11.09375,24.72656 -24.73438,24.72656 -13.64453,0 -24.73828,-11.09375 -24.73828,-24.72656 0,-13.64453 11.09375,-24.73828 24.73828,-24.73828 z m 0,0"
       id="path22" />
    <path
       style="fill:#000000;fill-opacity:1;fill-rule:nonzero;stroke:none"
       d="m 578.71875,143.48437 c 16.21094,0 29.39844,-13.1875 29.39844,-29.39843 0,-16.21094 -13.1875,-29.39844 -29.39844,-29.39844 -16.21094,0 -29.39844,13.1875 -29.39844,29.39844 -0.004,16.21093 13.1875,29.39843 29.39844,29.39843 z m 0,-47.597651 c 10.03516,0 18.19922,8.164061 18.19922,18.199221 0,10.03515 -8.16406,18.19922 -18.19922,18.19922 -10.03516,0 -18.19922,-8.16407 -18.19922,-18.19922 0,-10.03516 8.16406,-18.199221 18.19922,-18.199221 z m 0,0"
       id="path24" />
  </g>
</svg>
