<?xml version="1.0" encoding="UTF-8" standalone="no"?>
<svg
   width="875pt"
   height="875pt"
   viewBox="0 0 875 875"
   version="1.1"
   id="svg5"
   sodipodi:docname="noun-neural-network-247522922.svg"
   inkscape:version="1.2.2 (b0a8486541, 2022-12-01)"
   xmlns:inkscape="http://www.inkscape.org/namespaces/inkscape"
   xmlns:sodipodi="http://sodipodi.sourceforge.net/DTD/sodipodi-0.dtd"
   xmlns="http://www.w3.org/2000/svg"
   xmlns:svg="http://www.w3.org/2000/svg">
  <defs
     id="defs9" />
  <sodipodi:namedview
     id="namedview7"
     pagecolor="#ffffff"
     bordercolor="#000000"
     borderopacity="0.25"
     inkscape:showpageshadow="2"
     inkscape:pageopacity="0.0"
     inkscape:pagecheckerboard="0"
     inkscape:deskcolor="#d1d1d1"
     inkscape:document-units="pt"
     showgrid="false"
     inkscape:zoom="0.67028571"
     inkscape:cx="584.82524"
     inkscape:cy="583.33334"
     inkscape:window-width="1920"
     inkscape:window-height="1043"
     inkscape:window-x="0"
     inkscape:window-y="0"
     inkscape:window-maximized="1"
     inkscape:current-layer="svg5" />
  <g
     id="surface587"
     transform="matrix(-1.1947963,0,0,-1.1514713,850.27114,744.44125)">
    <path
       style="fill:#000000;fill-opacity:1;fill-rule:nonzero;stroke:none"
       d="m 512.19141,238 c 9.1875,4.4375 19.4414,7 30.30859,7 38.59766,0 70,-31.40234 70,-70 0,-38.59766 -31.40234,-70 -70,-70 -24.21875,0 -45.59766,12.37109 -58.17188,31.125 l -66.125,-33.10156 C 419.34375,98.027344 420,92.835938 420,87.5 c 0,-38.597656 -31.40234,-70 -70,-70 -38.59766,0 -70,31.402344 -70,70 0,14.50781 4.4375,27.99219 12.03125,39.18359 l -92.91797,97.15235 C 187.46094,215.1875 173.09375,210 157.5,210 c -38.59766,0 -70,31.40234 -70,70 0,38.59766 31.40234,70 70,70 16.15234,0 30.99219,-5.54688 42.85937,-14.76953 l 94.41016,94.41015 C 285.54687,441.50781 280,456.34766 280,472.5 c 0,38.59766 31.40234,70 70,70 38.59766,0 70,-31.40234 70,-70 0,-5.32031 -0.64844,-10.49219 -1.78516,-15.48047 l 62.05469,-22.60937 C 491.90625,456.99609 515.40234,472.5 542.5,472.5 c 38.59766,0 70,-31.40234 70,-70 0,-38.59766 -31.40234,-70 -70,-70 -9.95703,0 -19.41797,2.11719 -28,5.89062 L 482.29297,284.18359 Z M 476.53516,151.80469 C 473.96875,159.07422 472.5,166.86328 472.5,175 c 0,21.46484 9.73047,40.67969 24.98047,53.52344 l -25.16406,38.86718 -75.8711,-127.66796 c 6.38672,-5.6875 11.73438,-12.4961 15.69922,-20.15235 z M 349.99609,402.50781 c -16.15234,0 -30.99218,5.54688 -42.85937,14.76953 l -94.42188,-94.42187 c 5.66016,-7.28125 9.89453,-15.69141 12.33594,-24.83985 l 54.96875,7.5586 c 0.0117,0.23047 -0.0234,0.45703 -0.0234,0.68359 0,38.59766 31.40235,70 70,70 24.21875,0 45.60547,-12.37109 58.17188,-31.125 l 10.4375,5.21485 -38.3086,59.16015 c -9.17968,-4.4375 -19.43359,-7 -30.30078,-7 z m -8.75,-245.61328 v 79.96484 c -28.4375,3.57032 -51.57422,24.23829 -58.8164,51.37891 l -54.96875,-7.55859 c 0,-0.22657 0.0352,-0.45313 0.0352,-0.67969 0,-16.71094 -5.89843,-32.05078 -15.70703,-44.10156 l 91.875,-96.06641 c 10.30078,9.12891 23.25781,15.26563 37.58203,17.0625 z m 74.71485,172.55078 c 2.5664,-7.26953 4.03515,-15.05859 4.03515,-23.19531 0,-35.62891 -26.77343,-65.06641 -61.25,-69.39453 v -79.96485 c 8.29688,-1.04296 16.125,-3.52734 23.25782,-7.21093 l 79.69531,134.10937 -33.51953,51.76563 z m -3.73438,111.14063 c -4.27734,-8.30469 -10.13281,-15.64453 -17.21094,-21.61328 l 39.33985,-60.76172 42.17578,21.08593 c -2.56641,7.27344 -4.03516,15.0625 -4.03516,23.19922 0,5.32032 0.64844,10.49219 1.78516,15.48047 z m 87.26172,-93.20703 c -5.86328,4.58593 -11.00781,10.04687 -15.16406,16.23828 l -40.39844,-20.19532 27.74609,-42.84765 z m 0,0"
       id="path2" />
  </g>
</svg>
