<?xml version="1.0" encoding="UTF-8" standalone="no"?>
<svg
   width="875pt"
   height="875pt"
   viewBox="0 0 875 875"
   version="1.1"
   id="svg17"
   sodipodi:docname="noun-perceptron-4456575.svg"
   inkscape:version="1.2.2 (b0a8486541, 2022-12-01)"
   xmlns:inkscape="http://www.inkscape.org/namespaces/inkscape"
   xmlns:sodipodi="http://sodipodi.sourceforge.net/DTD/sodipodi-0.dtd"
   xmlns="http://www.w3.org/2000/svg"
   xmlns:svg="http://www.w3.org/2000/svg">
  <defs
     id="defs21" />
  <sodipodi:namedview
     id="namedview19"
     pagecolor="#ffffff"
     bordercolor="#000000"
     borderopacity="0.25"
     inkscape:showpageshadow="2"
     inkscape:pageopacity="0.0"
     inkscape:pagecheckerboard="0"
     inkscape:deskcolor="#d1d1d1"
     inkscape:document-units="pt"
     showgrid="false"
     inkscape:zoom="0.67028571"
     inkscape:cx="583.33333"
     inkscape:cy="583.33333"
     inkscape:window-width="1920"
     inkscape:window-height="1011"
     inkscape:window-x="0"
     inkscape:window-y="0"
     inkscape:window-maximized="1"
     inkscape:current-layer="svg17" />
  <g
     id="surface384"
     transform="matrix(1.3496465,0,0,1.3496465,-21.010072,-30.101611)">
    <path
       style="fill:#000000;fill-opacity:1;fill-rule:nonzero;stroke:none"
       d="m 500.56641,430.92969 c -48.24219,0 -87.5,-39.25782 -87.5,-87.5 0,-48.24219 39.25781,-87.5 87.5,-87.5 48.24218,0 87.5,39.25781 87.5,87.5 0,48.24218 -39.25782,87.5 -87.5,87.5 z m 0,-140 c -28.94922,0 -52.5,23.55078 -52.5,52.5 0,28.94922 23.55078,52.5 52.5,52.5 28.94921,0 52.5,-23.55078 52.5,-52.5 0,-28.94922 -23.55079,-52.5 -52.5,-52.5 z m 0,0"
       id="path2" />
    <path
       style="fill:#000000;fill-opacity:1;fill-rule:nonzero;stroke:none"
       d="m 150.56641,203.42969 c -28.94922,0 -52.500004,-23.55078 -52.500004,-52.5 0,-28.94922 23.550784,-52.500002 52.500004,-52.500002 28.94921,0 52.5,23.550782 52.5,52.500002 0,28.94922 -23.55079,52.5 -52.5,52.5 z m 0,-70 c -9.64844,0 -17.5,7.84375 -17.5,17.5 0,9.65625 7.85156,17.5 17.5,17.5 9.64843,0 17.5,-7.84375 17.5,-17.5 0,-9.65625 -7.85157,-17.5 -17.5,-17.5 z m 0,0"
       id="path4" />
    <path
       style="fill:#000000;fill-opacity:1;fill-rule:nonzero;stroke:none"
       d="m 150.56641,395.92969 c -28.94922,0 -52.500004,-23.55078 -52.500004,-52.5 0,-28.94922 23.550784,-52.5 52.500004,-52.5 28.94921,0 52.5,23.55078 52.5,52.5 0,28.94922 -23.55079,52.5 -52.5,52.5 z m 0,-70 c -9.64844,0 -17.5,7.84375 -17.5,17.5 0,9.65625 7.85156,17.5 17.5,17.5 9.64843,0 17.5,-7.84375 17.5,-17.5 0,-9.65625 -7.85157,-17.5 -17.5,-17.5 z m 0,0"
       id="path6" />
    <path
       style="fill:#000000;fill-opacity:1;fill-rule:nonzero;stroke:none"
       d="m 150.56641,588.42969 c -28.94922,0 -52.500004,-23.55078 -52.500004,-52.5 0,-28.94922 23.550784,-52.5 52.500004,-52.5 28.94921,0 52.5,23.55078 52.5,52.5 0,28.94922 -23.55079,52.5 -52.5,52.5 z m 0,-70 c -9.64844,0 -17.5,7.84375 -17.5,17.5 0,9.65625 7.85156,17.5 17.5,17.5 9.64843,0 17.5,-7.84375 17.5,-17.5 0,-9.65625 -7.85157,-17.5 -17.5,-17.5 z m 0,0"
       id="path8" />
    <path
       style="fill:#000000;fill-opacity:1;fill-rule:nonzero;stroke:none"
       d="m 426.48828,325.96484 c -2.94141,0 -5.92969,-0.73437 -8.66406,-2.30468 l -245,-140 c -8.39063,-4.80079 -11.30469,-15.48438 -6.51172,-23.875 4.79297,-8.375 15.49219,-11.3125 23.875,-6.51172 l 245,140 c 8.39062,4.80078 11.30859,15.48437 6.51172,23.875 -3.23047,5.65234 -9.13672,8.8164 -15.21094,8.8164 z m 0,0"
       id="path10" />
    <path
       style="fill:#000000;fill-opacity:1;fill-rule:nonzero;stroke:none"
       d="m 182.64453,539.55469 c -6.07422,0 -11.98047,-3.16407 -15.21094,-8.81641 -4.79297,-8.39062 -1.8789,-19.07031 6.51172,-23.875 l 245,-140 c 8.39844,-4.80078 19.08985,-1.87891 23.875,6.51172 4.79297,8.39062 1.87891,19.07031 -6.51172,23.875 l -245,140 c -2.73437,1.57031 -5.72265,2.30469 -8.66406,2.30469 z m 0,0"
       id="path12" />
    <path
       style="fill:#000000;fill-opacity:1;fill-rule:nonzero;stroke:none"
       d="m 413.06641,360.92969 h -227.5 c -9.66407,0 -17.5,-7.82813 -17.5,-17.5 0,-9.67188 7.83593,-17.5 17.5,-17.5 h 227.5 c 9.66406,0 17.5,7.82812 17.5,17.5 0,9.67187 -7.83594,17.5 -17.5,17.5 z m 0,0"
       id="path14" />
  </g>
</svg>
